// Jest Snapshot v1, https://goo.gl/fbAQLP

exports[`LoadingPageComponent should match snapshot 1`] = `
<vrt-loading-page
  activatedRoute={[Function ActivatedRoute]}
  authenticationService={[Function AuthenticationService]}
  currentUser$={[Function Observable]}
  destroy$={[Function Subject]}
  isDemoBuild="false"
  returnUrl="undefined"
  router={[Function _Router]}
>
</vrt-loading-page>
`;
