{
    "name": "event-domain",
    "$schema": "../../../node_modules/nx/schemas/project-schema.json",
    "sourceRoot": "libs/event/domain/src",
    "prefix": "vrt",
    "projectType": "library",
    "tags": ["scope:event", "type:domain"],
    "targets": {
        "test": {
            "executor": "@nx/jest:jest",
            "outputs": ["{workspaceRoot}/coverage/{projectRoot}"],
            "options": {
                "jestConfig": "libs/event/domain/jest.config.ts"
            }
        },
        "lint": {
            "executor": "@nx/eslint:lint"
        }
    }
}
