// Jest Snapshot v1, https://goo.gl/fbAQLP

exports[`RegistrationQuickMenuComponent should match snapshot 1`] = `
<vrt-registration-quick-menu
  downloadLog={[Function EventEmitter_]}
  matDialog={[Function Object]}
  registerToEvent={[Function EventEmitter_]}
  unregisterFromEvent={[Function EventEmitter_]}
>
</vrt-registration-quick-menu>
`;
